…
We start by subseting the data frame with only the variables we are interested. But with a summarise to see it grouped by the highway local authority.


```r
Acc <- Accidents %>% 
  filter(!is.na(Road_Type)) %>% 
  select(Accident_Index,Longitude,Latitude,Local_Authority_.Highway.,Road_Type) %>%
  group_by(Local_Authority_.Highway.) %>% 
  summarise(n())
Acc
```

```
## # A tibble: 207 x 2
##    Local_Authority_.Highway. `n()`
##                       <fctr> <int>
##  1                 E06000001   136
##  2                 E06000002   304
##  3                 E06000003   190
##  4                 E06000004   311
##  5                 E06000005   207
##  6                 E06000006   224
##  7                 E06000007   505
##  8                 E06000008   398
##  9                 E06000009   373
## 10                 E06000010   748
## # ... with 197 more rows
```
…
